{
  "project_info": {
    "project_number": "933461166838",
    "firebase_url": "https://transportation-and-mobility.firebaseio.com",
    "project_id": "transportation-and-mobility",
    "storage_bucket": "transportation-and-mobility.appspot.com"
  },
  "client": [
    {
      "client_info": {
        "mobilesdk_app_id": "1:933461166838:android:d1fce2f0750760b877fad7",
        "android_client_info": {
          "package_name": "com.bonkers.hackathons.transportationandmobility"
        }
      },
      "oauth_client": [
        {
          "client_id": "933461166838-6ckqqb9q1dt781icoqn22uqcf2ogbnf2.apps.googleusercontent.com",
          "client_type": 1,
          "android_info": {
            "package_name": "com.bonkers.hackathons.transportationandmobility",
            "certificate_hash": "9f10854c75184830faba472da277b55158d3ae9b"
          }
        },
        {
          "client_id": "933461166838-iil7bkkgh7brpm63ppja1suum3n6sir4.apps.googleusercontent.com",
          "client_type": 3
        }
      ],
      "api_key": [
        {
          "current_key": "AIzaSyCpufpVJKH7MPT-Q5JvhQUO6Kd__5Pk78I"
        }
      ],
      "services": {
        "appinvite_service": {
          "other_platform_oauth_client": [
            {
              "client_id": "933461166838-iil7bkkgh7brpm63ppja1suum3n6sir4.apps.googleusercontent.com",
              "client_type": 3
            }
          ]
        }
      }
    }
  ],
  "configuration_version": "1"
}